Servlet\ListarProdutos.class
Servlet\LogoutServlet.class
Servlet\UsuarioBackOffice_2Servlet.class
DAO\ProdutosDAO.class
DAO\UsuarioBackOfficeDAO.class
Servlet\AtualizaStatusProdutoServlet.class
Servlet\ComprarClienteServlet.class
Servlet\AvaliacaoPrincipalServlet.class
Servlet\VisualizarImagemServlet.class
Servlet\CadastroProdutoServlet.class
Servlet\AlterarUsuarioServlet.class
Servlet\SetMainImageServlet.class
Servlet\AtualizarStatusUsuarioBackOffice.class
Servlet\LoginServlet.class
br\com\gymcontrol\Model\Produtos.class
Servlet\AvaliacaoServlet.class
Servlet\DeleteImageServlet.class
Servlet\UsuarioBackOfficeServlet.class
Model\CadastrarUsuario.class
Servlet\EditarProdutoServlet.class
br\com\gymcontrol\Model\UsuarioBackOffice.class
Servlet\ListarTop8ProdutosServlet.class
Servlet\CadastrarUsuarioServlet.class
Servlet\AtualizarUsuarioBackOfficeServlet.class
