C:\Users\gda_a\IdeaProjects\EcomerceCofeeStore\src\main\java\Servlet\AtualizarUsuarioBackOfficeServlet.java
C:\Users\gda_a\IdeaProjects\EcomerceCofeeStore\src\main\java\Servlet\ListarTop8ProdutosServlet.java
C:\Users\gda_a\IdeaProjects\EcomerceCofeeStore\src\main\java\Servlet\ComprarClienteServlet.java
C:\Users\gda_a\IdeaProjects\EcomerceCofeeStore\src\main\java\Model\CadastrarUsuario.java
C:\Users\gda_a\IdeaProjects\EcomerceCofeeStore\src\main\java\Servlet\LoginServlet.java
C:\Users\gda_a\IdeaProjects\EcomerceCofeeStore\src\main\java\br\com\gymcontrol\Model\UsuarioBackOffice.java
C:\Users\gda_a\IdeaProjects\EcomerceCofeeStore\src\main\java\Servlet\ListarProdutos.java
C:\Users\gda_a\IdeaProjects\EcomerceCofeeStore\src\main\java\br\com\gymcontrol\Model\Produtos.java
C:\Users\gda_a\IdeaProjects\EcomerceCofeeStore\src\main\java\Servlet\AvaliacaoPrincipalServlet.java
C:\Users\gda_a\IdeaProjects\EcomerceCofeeStore\src\main\java\Servlet\LogoutServlet.java
C:\Users\gda_a\IdeaProjects\EcomerceCofeeStore\src\main\java\Servlet\DeleteImageServlet.java
C:\Users\gda_a\IdeaProjects\EcomerceCofeeStore\src\main\java\Servlet\EditarProdutoServlet.java
C:\Users\gda_a\IdeaProjects\EcomerceCofeeStore\src\main\java\Servlet\UsuarioBackOffice_2Servlet.java
C:\Users\gda_a\IdeaProjects\EcomerceCofeeStore\src\main\java\Servlet\AtualizarStatusUsuarioBackOffice.java
C:\Users\gda_a\IdeaProjects\EcomerceCofeeStore\src\main\java\Servlet\AvaliacaoServlet.java
C:\Users\gda_a\IdeaProjects\EcomerceCofeeStore\src\main\java\DAO\UsuarioBackOfficeDAO.java
C:\Users\gda_a\IdeaProjects\EcomerceCofeeStore\src\main\java\DAO\ProdutosDAO.java
C:\Users\gda_a\IdeaProjects\EcomerceCofeeStore\src\main\java\Servlet\AtualizaStatusProdutoServlet.java
C:\Users\gda_a\IdeaProjects\EcomerceCofeeStore\src\main\java\Servlet\AlterarUsuarioServlet.java
C:\Users\gda_a\IdeaProjects\EcomerceCofeeStore\src\main\java\Servlet\UsuarioBackOfficeServlet.java
C:\Users\gda_a\IdeaProjects\EcomerceCofeeStore\src\main\java\Servlet\CadastroProdutoServlet.java
C:\Users\gda_a\IdeaProjects\EcomerceCofeeStore\src\main\java\Servlet\CadastrarUsuarioServlet.java
C:\Users\gda_a\IdeaProjects\EcomerceCofeeStore\src\main\java\Servlet\SetMainImageServlet.java
C:\Users\gda_a\IdeaProjects\EcomerceCofeeStore\src\main\java\Servlet\VisualizarImagemServlet.java
